<mxfile host="app.diagrams.net" modified="2020-09-09T13:30:56.651Z" agent="5.0 (Windows NT 10.0; Win64; x64) AppleWebKit/537.36 (KHTML, like Gecko) Chrome/85.0.4183.83 Safari/537.36" etag="vcVHxZB3be__lnINnt8F" version="13.6.6" type="gitlab">
  <diagram id="8qqwOIYPj8RcQ0nL_82g" name="Page-1">
    <mxGraphModel dx="1021" dy="632" grid="1" gridSize="10" guides="1" tooltips="1" connect="1" arrows="1" fold="1" page="1" pageScale="1" pageWidth="850" pageHeight="1100" math="0" shadow="0">
      <root>
        <mxCell id="0" />
        <mxCell id="1" parent="0" />
        <mxCell id="1NurEI9-UMnYTbqBg9pV-2" value="Labeling Tool" style="rounded=0;whiteSpace=wrap;html=1;verticalAlign=top;" vertex="1" parent="1">
          <mxGeometry x="40" y="60" width="190" height="190" as="geometry" />
        </mxCell>
        <mxCell id="m199Kuyr8hS-UAxAGKql-2" value="" style="rounded=0;whiteSpace=wrap;html=1;" parent="1" vertex="1">
          <mxGeometry x="40" y="30" width="780" height="570" as="geometry" />
        </mxCell>
        <mxCell id="m199Kuyr8hS-UAxAGKql-4" value="" style="rounded=0;whiteSpace=wrap;html=1;" parent="1" vertex="1">
          <mxGeometry x="40" y="30" width="190" height="570" as="geometry" />
        </mxCell>
        <mxCell id="m199Kuyr8hS-UAxAGKql-5" value="open" style="rounded=0;whiteSpace=wrap;html=1;" parent="1" vertex="1">
          <mxGeometry x="40" y="30" width="90" height="30" as="geometry" />
        </mxCell>
        <mxCell id="m199Kuyr8hS-UAxAGKql-7" value="save" style="rounded=0;whiteSpace=wrap;html=1;" parent="1" vertex="1">
          <mxGeometry x="130" y="30" width="100" height="30" as="geometry" />
        </mxCell>
        <mxCell id="m199Kuyr8hS-UAxAGKql-8" value="info" style="rounded=0;whiteSpace=wrap;html=1;" parent="1" vertex="1">
          <mxGeometry x="40" y="430" width="190" height="170" as="geometry" />
        </mxCell>
        <mxCell id="m199Kuyr8hS-UAxAGKql-17" value="Roi Tool" style="rounded=0;whiteSpace=wrap;html=1;" parent="1" vertex="1">
          <mxGeometry x="40" y="350" width="190" height="80" as="geometry" />
        </mxCell>
        <mxCell id="1NurEI9-UMnYTbqBg9pV-1" value="Labeling Tool" style="rounded=0;whiteSpace=wrap;html=1;verticalAlign=top;" vertex="1" parent="1">
          <mxGeometry x="40" y="250" width="190" height="100" as="geometry" />
        </mxCell>
        <mxCell id="m199Kuyr8hS-UAxAGKql-19" value="threshold" style="rounded=0;whiteSpace=wrap;html=1;" parent="1" vertex="1">
          <mxGeometry x="70" y="290" width="140" height="30" as="geometry" />
        </mxCell>
        <mxCell id="1NurEI9-UMnYTbqBg9pV-3" value="Field of View" style="rounded=0;whiteSpace=wrap;html=1;verticalAlign=top;" vertex="1" parent="1">
          <mxGeometry x="40" y="60" width="190" height="190" as="geometry" />
        </mxCell>
        <mxCell id="m199Kuyr8hS-UAxAGKql-10" value="view" style="rounded=0;whiteSpace=wrap;html=1;" parent="1" vertex="1">
          <mxGeometry x="70" y="110" width="140" height="30" as="geometry" />
        </mxCell>
        <mxCell id="m199Kuyr8hS-UAxAGKql-11" value="color" style="rounded=0;whiteSpace=wrap;html=1;" parent="1" vertex="1">
          <mxGeometry x="70" y="140" width="140" height="30" as="geometry" />
        </mxCell>
        <mxCell id="m199Kuyr8hS-UAxAGKql-18" value="type" style="rounded=0;whiteSpace=wrap;html=1;" parent="1" vertex="1">
          <mxGeometry x="70" y="200" width="140" height="30" as="geometry" />
        </mxCell>
        <mxCell id="m199Kuyr8hS-UAxAGKql-20" value="slice" style="rounded=0;whiteSpace=wrap;html=1;" parent="1" vertex="1">
          <mxGeometry x="70" y="170" width="140" height="30" as="geometry" />
        </mxCell>
      </root>
    </mxGraphModel>
  </diagram>
</mxfile>
